<?xml version="1.0" encoding="UTF-8"?>
<svg width="50px" height="50px" viewBox="0 0 50 50" version="1.1" xmlns="http://www.w3.org/2000/svg" xmlns:xlink="http://www.w3.org/1999/xlink">
    <!-- Generator: Sketch 54.1 (76490) - https://sketchapp.com -->
    <title>Group_119</title>
    <desc>Created with Sketch.</desc>
    <g id="Page-1" stroke="none" stroke-width="1" fill="none" fill-rule="evenodd">
        <g id="2.21_Tier-2" transform="translate(-499.000000, -7144.000000)" fill="#0097A9" fill-rule="nonzero">
            <g id="Group_119" transform="translate(499.000000, 7144.000000)">
                <g id="Group_117">
                    <path d="M25.366,31.406 C24.8963196,30.9523578 24.1516804,30.9523578 23.682,31.406 C23.1595431,31.7220679 22.5699251,31.910499 21.961,31.956 C21.7902111,31.9566432 21.6200813,31.9347886 21.455,31.891 C21.0639684,31.7795317 20.7113313,31.5622048 20.436,31.263 L20.436,38.049 L23.998,35.913 C24.3216759,35.7197233 24.7253241,35.7197233 25.049,35.913 L28.611,38.049 L28.611,31.263 C28.3355024,31.5620032 27.9829262,31.7792926 27.592,31.891 C26.8155213,32.0158933 26.0205158,31.843035 25.366,31.407 L25.366,31.406 Z" id="Path_26"></path>
                    <path d="M24.523,25.546 C21.7013772,25.546 19.414,23.2586228 19.414,20.437 C19.414,17.6153772 21.7013772,15.328 24.523,15.328 C27.3446228,15.328 29.632,17.6153772 29.632,20.437 C29.6286937,23.2572521 27.3432521,25.5426937 24.523,25.546 L24.523,25.546 Z M33.107,20.437 C33.1509721,19.8108855 33.3440048,19.2043582 33.67,18.668 C33.8160028,18.4208408 33.9261056,18.1541698 33.997,17.876 C33.7846004,17.6775604 33.5496626,17.5047133 33.297,17.361 C32.7596389,17.0685452 32.2998877,16.6519921 31.956,16.146 C31.684986,15.5896947 31.5509251,14.9766486 31.565,14.358 C31.5690598,14.0643378 31.5289447,13.7717341 31.446,13.49 C31.168503,13.423916 30.884257,13.3903569 30.599,13.39 C29.3320804,13.5109862 28.1277121,12.8156642 27.599,11.658 C27.4540048,11.3980272 27.2698475,11.1619281 27.053,10.958 C26.7881612,11.0419109 26.5330465,11.1538798 26.292,11.292 C25.7555773,11.6178535 25.1490853,11.810875 24.523,11.855 C23.9076193,11.8569297 23.300714,11.7115467 22.753,11.431 C22.5042691,11.3208832 22.2376107,11.2568446 21.966,11.242 L21.966,11.242 C21.866,11.242 21.606,11.56 21.45,11.801 C21.1550811,12.3176871 20.7378829,12.7541141 20.235,13.072 C19.6763416,13.332934 19.063027,13.4553911 18.447,13.429 C18.1543549,13.4202226 17.8619825,13.4539061 17.579,13.529 C17.5130036,13.8037995 17.4794413,14.085387 17.479,14.368 C17.6029649,15.6352872 16.9072086,16.8411039 15.748,17.368 C15.4876246,17.5123874 15.2514365,17.6966141 15.048,17.914 C15.1321544,18.1784279 15.2441138,18.4331858 15.382,18.674 C16.1331731,19.7337189 16.1331731,21.1522811 15.382,22.212 C15.2360464,22.459302 15.1256299,22.7259175 15.054,23.004 C15.2666325,23.202159 15.5015361,23.3749809 15.754,23.519 C16.2910881,23.8110154 16.7505375,24.2272628 17.094,24.733 C17.3651245,25.2892669 17.4991914,25.9023402 17.485,26.521 C17.481507,26.8145573 17.521267,27.1070287 17.603,27.389 C17.8808728,27.4548769 18.1654256,27.4884326 18.451,27.489 C19.7178519,27.368325 20.9220523,28.0635501 21.451,29.221 C21.5958083,29.4810968 21.7799868,29.7172231 21.997,29.921 C22.2614519,29.8369091 22.5162164,29.7249468 22.757,29.587 C23.293503,29.2613232 23.8999512,29.0683156 24.526,29.024 C25.1413762,29.0221091 25.7482724,29.1674899 26.296,29.448 C26.5447166,29.558159 26.8113828,29.6221995 27.083,29.637 L27.088,29.637 C27.188,29.637 27.447,29.318 27.603,29.078 C27.8980833,28.5614355 28.315247,28.1250446 28.818,27.807 C29.376793,27.5465602 29.9900667,27.4244543 30.606,27.451 C30.8986433,27.4597351 31.1910096,27.4260524 31.474,27.351 C31.5402292,27.075903 31.5737942,26.793957 31.574,26.511 C31.449885,25.2434018 32.1461836,24.0373418 33.306,23.511 C33.5659728,23.3660048 33.8020719,23.1818475 34.006,22.965 C33.9218738,22.7005615 33.8099131,22.4458006 33.672,22.205 C33.3460403,21.6686257 33.1530104,21.0621072 33.109,20.436 L33.107,20.437 Z" id="Path_27"></path>
                    <path d="M24.523,17.371 C23.2827368,17.3705955 22.1643919,18.1174542 21.6895769,19.2632306 C21.2147619,20.409007 21.4770122,21.7279907 22.3540108,22.6049892 C23.2310093,23.4819878 24.549993,23.7442381 25.6957694,23.2694231 C26.8415458,22.7946081 27.5884045,21.6762632 27.588,20.436 C27.5857964,18.7441609 26.2148391,17.3732036 24.523,17.371 L24.523,17.371 Z" id="Path_28"></path>
                    <path d="M35.976,23.504 C35.6921442,24.257092 35.1322201,24.8738666 34.41,25.229 C34.1591607,25.3694707 33.9298155,25.5452684 33.729,25.751 C33.6460199,26.0337325 33.6062375,26.3273804 33.611,26.622 C33.7443211,27.4246699 33.482037,28.2423386 32.9066878,28.8176878 C32.3313386,29.393037 31.5136699,29.6553211 30.711,29.522 L30.655,29.522 L30.655,39.848 C30.654277,40.2159215 30.4560382,40.555116 30.1358313,40.7363184 C29.8156244,40.9175207 29.4227766,40.9128171 29.107,40.724 L24.524,37.974 L19.941,40.724 C19.6253724,40.912978 19.2325337,40.9177417 18.9124164,40.736473 C18.5922991,40.5552042 18.3943045,40.2158769 18.394,39.848 L18.394,29.522 L18.338,29.522 C17.5353301,29.6553211 16.7176614,29.393037 16.1423122,28.8176878 C15.566963,28.2423386 15.3046789,27.4246699 15.438,26.622 C15.4420279,26.3273546 15.4019166,26.0337667 15.319,25.751 C15.1180288,25.5454439 14.8887102,25.3696666 14.638,25.229 C13.9160917,24.8739423 13.356245,24.2576104 13.072,23.505 C12.9468461,22.7281962 13.119715,21.9327847 13.556,21.278 C14.0096422,20.8083196 14.0096422,20.0636804 13.556,19.594 C13.1199863,18.9394648 12.9468003,18.1445943 13.071,17.368 C13.3557255,16.6154402 13.9153934,15.9989478 14.637,15.643 C14.8878393,15.5025293 15.1171845,15.3267316 15.318,15.121 C15.4011985,14.8382936 15.4413156,14.5446629 15.437,14.25 C15.3032052,13.4472357 15.5653332,12.6292733 16.1408032,12.0538032 C16.7162733,11.4783332 17.5342357,11.2162052 18.337,11.35 C18.6319689,11.3539477 18.9258747,11.313839 19.209,11.231 C19.4145048,11.0299834 19.5902762,10.8006725 19.731,10.55 C20.0866228,9.82814846 20.7032277,9.26837841 21.456,8.984 C22.2324677,8.85950803 23.0273275,9.0323347 23.682,9.468 C24.1514698,9.92216333 24.8965302,9.92216333 25.366,9.468 C26.0214473,9.03328069 26.8162433,8.86054551 27.593,8.984 C28.3454506,9.26850593 28.9616978,9.82827577 29.317,10.55 C29.4578943,10.8005601 29.633648,11.029848 29.839,11.231 C30.1221378,11.3137805 30.4160347,11.353888 30.711,11.35 C31.5136699,11.2166789 32.3313386,11.478963 32.9066878,12.0543122 C33.482037,12.6296614 33.7443211,13.4473301 33.611,14.25 C33.6069721,14.5446454 33.6470834,14.8382333 33.73,15.121 C33.9309712,15.3265561 34.1602898,15.5023334 34.411,15.643 C35.1328469,15.9981392 35.692668,16.6144429 35.977,17.367 C36.1018525,18.1437956 35.9290073,18.9390976 35.493,19.594 C35.0388367,20.0634698 35.0388367,20.8085302 35.493,21.278 C35.9286927,21.9322861 36.1015325,22.7268492 35.977,23.503 L35.976,23.504 Z M24.524,0.004 C10.9797688,0.004 0,10.9837688 0,24.528 C0,38.0722312 10.9797688,49.052 24.524,49.052 C38.0682312,49.052 49.048,38.0722312 49.048,24.528 C49.048,10.9837688 38.0682312,0.004 24.524,0.004 L24.524,0.004 Z" id="Path_29"></path>
                </g>
            </g>
        </g>
    </g>
</svg>