<?xml version="1.0" encoding="UTF-8"?>
<svg xmlns="http://www.w3.org/2000/svg" width="21.939" height="20.732" viewBox="0 0 21.939 20.732">
   <g transform="translate(-925 -769.534)">
      <path d="M299.436,457.87a4.805,4.805,0,0,1-3.694,1.52H288.7a4.04,4.04,0,0,1-2.4-.761h-6.2a.773.773,0,0,1-.785-.771v-8.435a.774.774,0,0,1,.785-.771h5.029a3.831,3.831,0,0,1,.651-1.056l.056-.078,6.971-7.807a.8.8,0,0,1,.561-.264.713.713,0,0,1,.573.232,3.4,3.4,0,0,1,.987,3.05l-1.234,3.623h2.828a5.11,5.11,0,0,1,4.693,4.6C301.232,451.065,301.647,455.469,299.436,457.87Z" transform="translate(645.68 330.089)" />
      <path d="M284.161,446.241a44.843,44.843,0,0,0-.1,9.734,4.059,4.059,0,0,0,1.374,2.2,3.791,3.791,0,0,0,1.08.686" transform="translate(646.242 330.939)" stroke="#fff" stroke-miterlimit="10" stroke-width="1" />
   </g>
</svg>